
estate_vampires_broken_masquerade_disaster = {
	potential = {
		has_estate = estate_vampires
		has_vampire_masquerade = yes
		is_year = 1445
		#NOT = { has_reform = eternal_council }
		OR = {
			NOT = { has_country_flag = recent_masquerade_disaster }
			had_country_flag = {
				flag = recent_masquerade_disaster
				days = 3650
			}
		}
	}


	can_start = {
		has_any_disaster = no
		if = {
			limit = { NOT = { vampires_rule_the_country = yes } }
			NOT = {
				estate_influence = {
					estate = estate_vampires
					influence = 25
				}
			}
		}
		else = {
			OR = {
				NOT = { prestige = 25 }
				NOT = { legitimacy_equivalent = 50 }
			}
			NOT = { stability = 1 }
		}
		NOT = { has_estate_privilege = estate_vampires_organization_vampiric_emigres }
	}
	
	can_stop = {
		OR = {
			has_any_disaster = yes
			if = {
				limit = { NOT = { vampires_rule_the_country = yes } }
				estate_influence = {
					estate = estate_vampires
					influence = 40
				}
				stability = 3
			}
			else = {
				stability = 2
				OR = {
					prestige = 50
					legitimacy_equivalent = 90
				}
			}
		}
	}
	
	down_progress = {
		factor = 0.1
		modifier = {
			factor = 0.1

			adm = 6
			vampires_rule_the_country = yes
		}
		modifier = {
			factor = 0.5
			
			has_estate_privilege = estate_vampires_organization_the_blood_court
		}
	}
	
	progress = {
		modifier = {
			factor = 0.1
			NOT = { has_reform = ar_callein_reform }
			vampires_rule_the_country = yes
		}
		
		modifier = {
			factor = 1
			has_country_flag = outed_vampire
		}
		
		modifier = {
			factor = 2
			has_country_modifier = outed_vampire
		}
	
		modifier = {
			factor = 0.5
			is_at_war = yes
		}
		
		modifier = {
			factor = 0.5
			NOT = { stability = 0 }
		}
		modifier = {
			factor = 0.5
			NOT = { stability = 1 }
		}
		
		modifier = {
			factor = 0.5
			NOT = { stability = 2 }
		}
		
		modifier = {
			factor = 0.5
			NOT = { stability = 3 }
		}
		
		modifier = {
			factor = 0.5
			NOT = {
				estate_loyalty = {
					estate = estate_vampires
					loyalty = 50
				}
			}
		}
		
		modifier = {
			factor = 0.5
			NOT = {
				estate_loyalty = {
					estate = estate_vampires
					loyalty = 25
				}
			}
		}
		
		modifier = {
			factor = 0.5
			NOT = {
				estate_loyalty = {
					estate = estate_vampires
					loyalty = 10
				}
			}
		}
	}
	
	can_end = {
		NOT = { has_spawned_rebels = vampires_nobles }
		stability = 3
		if = { 
			limit = { has_disaster = estate_vampires_broken_masquerade_disaster }
			hidden_trigger = { 
				had_country_flag = {
					flag = broken_masquerade
					days = 10
				}
			}
		}
	}
	
	modifier = {	
		global_unrest = 3
		global_tax_modifier = -0.30
		manpower_recovery_speed = -0.3
		prestige = -0.5
	}

	on_start = disaster_vampire_masquerade.1
	on_end = disaster_vampire_masquerade.6
	
	on_monthly = {
		random_events = {
			1000 = 0
			90 = disaster_vampire_masquerade.2
			25 = disaster_vampire_masquerade.3
		}
	}
}

