
estate_vampires_restore_masquerade_disaster = {
	potential = {
		has_estate = estate_vampires
		has_vampire_masquerade = no
		is_year = 1445
		OR = {
			NOT = { has_country_flag = recent_masquerade_disaster }
			had_country_flag = {
				flag = recent_masquerade_disaster
				days = 3650
			}
		}
	}


	can_start = {
		has_any_disaster = no
		if = {
			limit = { AND = { has_estate_privilege = estate_vampires_organization_the_blood_court has_country_modifier = ruler_broken_masquerade } }
			OR = {
				NOT = {
					estate_influence = {
						estate = estate_vampires
						influence = 10
					}
				}
				has_estate_privilege = estate_vampires_organization_the_blood_court
				has_country_modifier = ruler_broken_masquerade
			}
		}
		else_if = {
			limit = { has_estate_privilege = estate_vampires_organization_the_blood_court }
			OR = {
				NOT = {
					estate_influence = {
						estate = estate_vampires
						influence = 10
					}
				}
				has_estate_privilege = estate_vampires_organization_the_blood_court
			}
		}
		else_if = {
			limit = { has_country_modifier = ruler_broken_masquerade }
			OR = {
				NOT = {
					estate_influence = {
						estate = estate_vampires
						influence = 10
					}
				}
				has_country_modifier = ruler_broken_masquerade
			}
		}
		else = {
			NOT = {
				estate_influence = {
					estate = estate_vampires
					influence = 10
				}
			}
		}
	}
	
	can_stop = {
		if = {
			limit = { AND = { has_estate_privilege = estate_vampires_organization_the_blood_court has_country_modifier = ruler_broken_masquerade } }
			OR = {
				has_any_disaster = yes
				AND = {
					estate_influence = {
						estate = estate_vampires
						influence = 20
					}
					stability = 0
				}
			}
			NOT = { has_country_modifier = ruler_broken_masquerade }
			NOT = { has_estate_privilege = estate_vampires_organization_the_blood_court }
		}
		else_if = {
			limit = { has_country_modifier = ruler_broken_masquerade }
			OR = {
				has_any_disaster = yes
				AND = {
					estate_influence = {
						estate = estate_vampires
						influence = 20
					}
					stability = 0
				}
			}
			NOT = { has_country_modifier = ruler_broken_masquerade }
		}
		else_if = {
			limit = { has_estate_privilege = estate_vampires_organization_the_blood_court }
			OR = {
				has_any_disaster = yes
				AND = {
					estate_influence = {
						estate = estate_vampires
						influence = 20
					}
					stability = 0
				}
			}
			has_estate_privilege = estate_vampires_organization_the_blood_court
		}
		else = {
			OR = {
				has_any_disaster = yes
				AND = {
					estate_influence = {
						estate = estate_vampires
						influence = 20
					}
					stability = 0
				}
			}
		}
	}
	
	down_progress = {
		factor = 0.1
	}
	
	progress = {
	
		modifier = {
			factor = 0.5
			is_at_war = yes
		}
		
		modifier = {
			factor = 1
			vampires_rule_the_country = yes
		}
		
		modifier = {
			factor = 0.5
			NOT = { stability = 0 }
		}
		
		modifier = {
			factor = 0.5
			NOT = { stability = 1 }
		}
		
		modifier = {
			factor = 0.5
			NOT = { stability = 2 }
		}
		
		modifier = {
			factor = 0.5
			NOT = { stability = 3 }
		}
		
		modifier = {
			factor = 0.5
			NOT = {
				estate_loyalty = {
					estate = estate_vampires
					loyalty = 50
				}
			}
		}
		
		modifier = {
			factor = 0.5
			NOT = {
				estate_loyalty = {
					estate = estate_vampires
					loyalty = 25
				}
			}
		}
		
		modifier = {
			factor = 0.5
			NOT = {
				estate_loyalty = {
					estate = estate_vampires
					loyalty = 10
				}
			}
		}
	}
	
	can_end = {
		NOT = { any_owned_province = { has_province_modifier = vampire_hideout } }
		custom_trigger_tooltip = {
			tooltip = vampire_pretender_rised_tooltip
			AND = {
				has_country_flag = vampire_pretender_rised
				had_country_flag = {
					flag = vampire_pretender_rised
					days = 30
				}
				NOT = { has_spawned_rebels = pretender_rebels }
			}
		}
	}
	
	modifier = {	
		global_unrest = 1
	}

	on_start = disaster_vampire_masquerade.9
	on_end = disaster_vampire_masquerade.17
	
	on_monthly = {
	}
}

