
country_decisions = {

	dostanorian_nation = {
		major = yes
		potential = {
			culture_group = dostanorian_g
			NOT = { has_country_flag = formed_dostanor }
			OR = {
				ai = no
				is_playing_custom_nation = no
			}
			NOT = { exists = Z07 }
			OR = {
				ai = no
				AND = {
					ai = yes
					num_of_cities = 20
				}
			}
			is_colonial_nation = no
			OR = {
				is_former_colonial_nation = no
				AND = {
					ai = no
					is_former_colonial_nation = yes
				}
			}
			NOT = { has_country_flag = corvurian_embraced_vampires }
			normal_or_historical_nations = yes
			was_never_end_game_tag_trigger = yes
		}
		provinces_to_highlight = {
			OR = {
				province_id = 447 #Corveld
				province_id = 510 #Bal Ouord
				province_id = 441 #Arca Corvur
				province_id = 427 #Ioan's Ford
				province_id = 432 #Cannmarionn
				province_id = 520 #Akrad-til
				province_id = 514 #Marwar
			}
			OR = {
				NOT = { owned_by = ROOT }
				NOT = { is_core = ROOT }
			}
		}
		allow = {
			adm_tech = 10
			is_free_or_tributary_trigger = yes
			is_at_war = no
#			AND = {
				owns_core_province = 447 #Corveld 
#				NOT = { 
#					447 = { has_province_modifier = ruined_city }
#				}
#			}	
			AND = {
				owns_core_province = 441 #Arca Corvur
				441 = { has_province_modifier = castanorian_citadel } 
			}	
			AND = {
				owns_core_province = 510 #Bal Ouord
				510 = { has_province_modifier = castanorian_citadel } 
			}	
			owns_core_province = 441 #Arca Corvur
			owns_core_province = 427 #Ioan's Ford
			owns_core_province = 432 #Cannmarionn
			owns_core_province = 520 #Akrad-til
			owns_core_province = 514 #Marwar
			if = {
				limit = { has_estate = estate_vampires }
				NOT = { has_estate = estate_vampires }
			}
		}
		effect = {
			change_tag = Z07
			hidden_effect = { restore_country_name = yes }
			if = {
				limit = {
					NOT = { government_rank = 2 }
				}
				set_government_rank = 2
			}
			hidden_effect = {
				every_owned_province = {
					limit = {
						has_owner_culture = yes
					}
					change_culture = dostanorian
				}
			}
			change_primary_culture = dostanorian
			daravans_folly_region = {
				limit = {
					NOT = { owned_by = ROOT }
				}
				add_permanent_claim = Z07
			}	
			dostanor_region = {
				limit = {
					NOT = { owned_by = ROOT }
				}
				add_permanent_claim = Z07
			}	
			ourdia_region = {
				limit = {
					NOT = { owned_by = ROOT }
				}
				add_permanent_claim = Z07
			}
			add_country_modifier = {
				name = "centralization_modifier"
				duration = 7300
			}
			
			add_prestige = 25

			if = {
				limit = { has_custom_ideas = no }
				country_event = { id = ideagroups.1 } #Swap Ideas
				set_country_flag = formed_dostanor
			}
		}
		ai_will_do = {
			factor = 1
			modifier = {
				factor = 0
				government = republic
			}
		}
	}

	dostanor_march_release = {
		major = yes
		potential = {
			tag = B32
			NOT = { exists = Z07 }
			OR = {
				ai = no
				AND = {
					ai = yes
					num_of_cities = 20
				}
			}
			is_colonial_nation = no
			OR = {
				is_former_colonial_nation = no
				AND = {
					ai = no
					is_former_colonial_nation = yes
				}
			}
		}
		provinces_to_highlight = {
			OR = {
				province_id = 447 #Corveld
				province_id = 510 #Bal Ouord
				province_id = 441 #Arca Corvur
				province_id = 427 #Ioan's Ford
				province_id = 432 #Cannmarionn
			#	province_id = 520 #Akrad-til
				province_id = 514 #Marwar
			}
			OR = {
				NOT = { owned_by = ROOT }
				NOT = { is_core = ROOT }
			}
		}
		allow = {
			adm_tech = 10
			is_free_or_tributary_trigger = yes
			is_at_war = no
			AND = {
				owns_core_province = 447 #Corveld 
#				NOT = { 
#					447 = { has_province_modifier = ruined_city }
#				}
			}	
			AND = {
				owns_core_province = 510 #Bal Ouord
			#	510 = { has_province_modifier = castanorian_citadel } 
			}	
			owns_core_province = 441 #Arca Corvur
			owns_core_province = 427 #Ioan's Ford
			owns_core_province = 432 #Cannmarionn
		#	owns_core_province = 520 #Akrad-til
			owns_core_province = 514 #Marwar
		}
		effect = {
			hidden_effect = {
				dostanor_region = {
					limit = {
						owned_by = B32
					}
					add_core = Z07
					remove_core = B32
				}
				ourdia_region = {
					limit = {
						owned_by = B32
					}
					add_core = Z07
					remove_core = B32
				}
				daravans_folly_region = {
					limit = {
						owned_by = B32
					}
					add_core = Z07
					remove_core = B32
				}
				dostanor_region = {
					limit = {
						has_owner_culture = yes
						owned_by = B32
					}
					change_culture = dostanorian
				}
				ourdia_region = {
					limit = {
						has_owner_culture = yes
						owned_by = B32
					}
					change_culture = dostanorian
				}
				daravans_folly_region = {
					limit = {
						has_owner_culture = yes
						owned_by = B32
					}
					change_culture = dostanorian
				}
			}
			custom_tooltip = dostanor_release_tooltip
			release = Z07
			create_march = Z07
			Z07 = {
				change_religion = ROOT
				set_ruler_religion = ROOT
				change_government = monarchy
				441 = { move_capital_effect = yes }
				change_primary_culture = dostanorian
				daravans_folly_region = {
					limit = {
						NOT = { owned_by = ROOT }
					}
					add_permanent_claim = Z07
				}
				dostanor_region = {
					limit = {
						NOT = { owned_by = ROOT }
					}
					add_permanent_claim = Z07
				}	
				ourdia_region = {
					limit = {
						NOT = { owned_by = ROOT }
					}
					add_permanent_claim = Z07
				}
				if = {
					limit = { has_custom_ideas = no }
					country_event = { id = ideagroups.1 } #Swap Ideas
				}
				set_country_flag = formed_dostanor
			}
		}
		ai_will_do = {
			factor = 1
			modifier = {
				factor = 0
				capital_scope = {
					region = dostanor_region
				}
			}
			modifier = {
				factor = 0
				NOT = {
					num_of_owned_provinces_with = {
						value = 30
						NOT = { region = dostanor_region }
						NOT = { region = ourdia_region }
						NOT = { region = daravans_folly_region }
					}
				}
			}
		}
	}
}