
country_decisions = {

	form_harimraj = { #Harimari Empire of Rahen
		major = yes
		potential = {
			primary_culture = royal_harimari
			NOT = { exists = R70 }
			normal_or_historical_nations = yes
			was_never_end_game_tag_trigger = yes
		}
		provinces_to_highlight = {
				AND = {
					OR = {
						province_id = 4409
						province_id = 4411
						province_id = 4412
						province_id = 4435
						province_id = 4493
						province_id = 4510
					}
					OR = {
						NOT = { owned_by = ROOT }
						NOT = { is_core = ROOT }
					}
				}
		}
		allow = {
			is_at_war = no
			is_free_or_tributary_trigger = yes
			num_of_owned_provinces_with = {
				value = 100
				superregion = rahen_superregion
			}
			owns_core_province = 4409
			owns_core_province = 4411
			owns_core_province = 4412
			owns_core_province = 4435
			owns_core_province = 4493
			owns_core_province = 4510
		}
		effect = {
			change_tag = R70
			hidden_effect = { restore_country_name = yes }
			hidden_effect = {
				every_owned_province = {
					limit = {
						is_part_of_hre = yes
					}
					set_in_empire = no
				}
			}
			if = {
				limit = { has_reform = raja_reform }
				add_government_reform = feudalism_reform
				remove_country_modifier = raj_opened_senapti_ranks
				remove_country_modifier = raj_closed_senapti_ranks
			}
			set_government_rank = 3
			add_prestige = 50
			if = {
				limit = { has_custom_ideas = no }
				country_event = { id = ideagroups.1 } #Swap Ideas
			}
			if = {
				limit = {
					NOT = {
						government = monarchy
					}
				}
				change_government = monarchy
			}
			add_country_modifier = {
				name = "centralization_modifier"
				duration = 7300
			}
			set_country_flag = formed_harimraj_flag
			rahen_superregion = {
				limit = {
					NOT = { is_core = ROOT }
					NOT = { owned_by = ROOT }
				}
				add_permanent_claim = ROOT
			}
			lock_racial_admin = yes
		}
		ai_will_do = {
			factor = 1
		}
	}
	
	form_rahenraj = { #Human Empire of Rahen
		major = yes
		potential = {
			OR = { culture_group = south_raheni culture_group = middle_raheni culture_group = upper_raheni }
			NOT = { exists = R71 }
			normal_or_historical_nations = yes
			was_never_end_game_tag_trigger = yes
		}
		provinces_to_highlight = {
				AND = {
					OR = {
						province_id = 4397
						province_id = 4409
						province_id = 4411
						province_id = 4460
						province_id = 4510
						province_id = 4630
					}
					OR = {
						NOT = { owned_by = ROOT }
						NOT = { is_core = ROOT }
					}
				}
		}
		allow = {
			is_at_war = no
			is_free_or_tributary_trigger = yes
			num_of_owned_provinces_with = {
				value = 100
				superregion = rahen_superregion
			}
			owns_core_province = 4397
			owns_core_province = 4409
			owns_core_province = 4411
			owns_core_province = 4460
			owns_core_province = 4510
			owns_core_province = 4630
		}
		effect = {
			change_tag = R71
			hidden_effect = { restore_country_name = yes }
			hidden_effect = {
				every_owned_province = {
					limit = {
						is_part_of_hre = yes
					}
					set_in_empire = no
				}
			}
			if = {
				limit = { has_reform = raja_reform }
				add_government_reform = feudalism_reform
				remove_country_modifier = raj_opened_senapti_ranks
				remove_country_modifier = raj_closed_senapti_ranks
			}
			set_government_rank = 3
			add_prestige = 50
			if = {
				limit = { has_custom_ideas = no }
				country_event = { id = ideagroups.1 } #Swap Ideas
			}
			add_country_modifier = {
				name = "centralization_modifier"
				duration = 7300
			}
			set_country_flag = formed_rahenraj_flag
			rahen_superregion = {
				limit = {
					NOT = { is_core = ROOT }
					NOT = { owned_by = ROOT }
				}
				add_permanent_claim = ROOT
			}
			
			lock_racial_admin = yes
		}
		ai_will_do = {
			factor = 1
		}
	}
	
	form_dhugajir = { #Unification of the Ghavanaaj tribes. The elephant lords
		major = yes
		potential = {
			primary_culture = ghavaanaj
			NOT = { exists = R72 }
			normal_or_historical_nations = yes
			was_never_end_game_tag_trigger = yes
			NOT = { has_country_flag = formed_dhugajir_flag }
		}
		provinces_to_highlight = {
			OR = {
				AND = {
					province_id = 4485
					OR = {
						NOT = { owned_by = ROOT }
						NOT = { is_core = ROOT }
					}
				}
				AND = {
					OR = {
						province_id = 4477
						province_id = 4469
						province_id = 4483
						province_id = 4479
						province_id = 4508
						province_id = 4486
					}
					NOT = {
						calc_true_if = {
							amount = 4
							all_province = {
								OR = {
									province_id = 4477
									province_id = 4469
									province_id = 4483
									province_id = 4479
									province_id = 4508
									province_id = 4486
								}
								owned_by = ROOT
							}
						}
					}
					NOT = { owned_by = ROOT }
				}
				AND = {
					culture = ghavaanaj
					NOT = {
						calc_true_if = {
							amount = 10
							all_province = {
								culture = ghavaanaj
								owned_by = ROOT
							}
						}
					}
					NOT = { owned_by = ROOT }
				}
			}
		}
		allow = {
			adm_tech = 8
			is_at_war = no
			owns_core_province = 4485
			num_of_owned_provinces_with = {
				value = 4
				OR = {
					province_id = 4477
					province_id = 4469
					province_id = 4483
					province_id = 4479
					province_id = 4508
					province_id = 4486
				}
			}
			num_of_owned_provinces_with = {
				value = 10
				culture = ghavaanaj
			}
		}
		effect = {
			change_tag = R72
			hidden_effect = { restore_country_name = yes }
			swap_non_generic_missions = yes
			4485 = { move_capital_effect = yes }
			hidden_effect = {
				every_owned_province = {
					limit = {
						is_part_of_hre = yes
					}
					set_in_empire = no
				}
			}
			set_government_rank = 2
			add_prestige = 50
			if = {
				limit = { has_custom_ideas = no }
				country_event = { id = ideagroups.1 } #Swap Ideas
			}
			add_country_modifier = {
				name = "centralization_modifier"
				duration = 7300
			}
			set_country_flag = formed_dhugajir_flag
			east_marutha_area = {
				limit = {
					NOT = { is_core = ROOT }
					NOT = { owned_by = ROOT }
				}
				add_permanent_claim = ROOT
			}
			tavharaan_area = {
				limit = {
					NOT = { is_core = ROOT }
					NOT = { owned_by = ROOT }
				}
				add_permanent_claim = ROOT
			}
			maharaaja_area = {
				limit = {
					NOT = { is_core = ROOT }
					NOT = { owned_by = ROOT }
				}
				add_permanent_claim = ROOT
			}
			buhaanjirgal_area = {
				limit = {
					NOT = { is_core = ROOT }
					NOT = { owned_by = ROOT }
				}
				add_permanent_claim = ROOT
			}
			maldeelakhan_area = {
				limit = {
					NOT = { is_core = ROOT }
					NOT = { owned_by = ROOT }
				}
				add_permanent_claim = ROOT
			}
			banjisbid_area = {
				limit = {
					NOT = { is_core = ROOT }
					NOT = { owned_by = ROOT }
				}
				add_permanent_claim = ROOT
			}
			banjiraal_area = {
				limit = {
					NOT = { is_core = ROOT }
					NOT = { owned_by = ROOT }
				}
				add_permanent_claim = ROOT
			}
		}
		ai_will_do = {
			factor = 1
		}
		
	}
	
	form_nadimraj = { #Restoration of the great kingdom of the River, the cradle of Raheni civilisation
		major = yes
		potential = {
			culture_group = upper_raheni
			NOT = { exists = R73 }
			normal_or_historical_nations = yes
			was_never_end_game_tag_trigger = yes
			NOT = { has_country_flag = formed_dhugajir_flag }
		}
		provinces_to_highlight = {
			OR = {
				province_id = 4397
				province_id = 4451
				province_id = 4460
				province_id = 4465
				province_id = 4466
				province_id = 4467
				province_id = 4474
				province_id = 4509
				province_id = 4510
			}
			OR = {
				NOT = { owned_by = ROOT }
				NOT = { is_core = ROOT }
			}
		}
		allow = {
			is_at_war = no
			is_free_or_tributary_trigger = yes
			owns_core_province = 4397
			owns_core_province = 4451
			owns_core_province = 4460
			owns_core_province = 4465
			owns_core_province = 4466
			owns_core_province = 4467
			owns_core_province = 4474
			owns_core_province = 4509
			owns_core_province = 4510
		}
		effect = {
			change_tag = R73
			hidden_effect = { restore_country_name = yes }
			4460 = { move_capital_effect = yes }
			hidden_effect = {
				every_owned_province = {
					limit = {
						is_part_of_hre = yes
					}
					set_in_empire = no
				}
			}
			set_government_rank = 2
			add_prestige = 50
			if = {
				limit = { has_custom_ideas = no }
				country_event = { id = ideagroups.1 } #Swap Ideas
			}
			add_country_modifier = {
				name = "centralization_modifier"
				duration = 7300
			}
			set_country_flag = formed_dhugajir_flag
			west_rajnadhaga_area = {
				limit = {
					NOT = { is_core = ROOT }
					NOT = { owned_by = ROOT }
				}
				add_permanent_claim = ROOT
			}
			khadirnadi_area = {
				limit = {
					NOT = { is_core = ROOT }
					NOT = { owned_by = ROOT }
				}
				add_permanent_claim = ROOT
			}
			east_rajnadhaga_area = {
				limit = {
					NOT = { is_core = ROOT }
					NOT = { owned_by = ROOT }
				}
				add_permanent_claim = ROOT
			}
			tiltaghar_area = {
				limit = {
					NOT = { is_core = ROOT }
					NOT = { owned_by = ROOT }
				}
				add_permanent_claim = ROOT
			}
			middle_nadimraj_area = {
				limit = {
					NOT = { is_core = ROOT }
					NOT = { owned_by = ROOT }
				}
				add_permanent_claim = ROOT
			}
			bidhilar_area = {
				limit = {
					NOT = { is_core = ROOT }
					NOT = { owned_by = ROOT }
				}
				add_permanent_claim = ROOT
			}
			khadisrapur_area = {
				limit = {
					NOT = { is_core = ROOT }
					NOT = { owned_by = ROOT }
				}
				add_permanent_claim = ROOT
			}
			munlanan_area = {
				limit = {
					NOT = { is_core = ROOT }
					NOT = { owned_by = ROOT }
				}
				add_permanent_claim = ROOT
			}
			raghajandi_area = {
				limit = {
					NOT = { is_core = ROOT }
					NOT = { owned_by = ROOT }
				}
				add_permanent_claim = ROOT
			}
		}
		ai_will_do = {
			factor = 1
		}
	}
	
	form_ghankedhen = { #Unification of the Ghankedhen tribes
		major = yes
		potential = {
			primary_culture = ghankedhen
			NOT = { exists = R74 }
			normal_or_historical_nations = yes
			was_never_end_game_tag_trigger = yes
			NOT = { has_country_flag = formed_ghankedhen_flag }
		}
		provinces_to_highlight = {
			culture = ghankedhen
			NOT = { 
				calc_true_if = {
					amount = 8
					all_province = {
						culture = ghankedhen
						owned_by = ROOT
					}
				}
			}
			NOT = { owned_by = ROOT }
		}
		allow = {
			adm_tech = 8
			is_at_war = no			
			num_of_owned_provinces_with = {
				value = 8
				culture = ghankedhen
			}
		}
		effect = {
			change_tag = R74
			hidden_effect = { restore_country_name = yes }
			swap_non_generic_missions = yes
			capital_scope = { add_base_tax = 1 add_base_production = 1 add_base_manpower = 1 }
			hidden_effect = {
				every_owned_province = {
					limit = {
						is_part_of_hre = yes
					}
					set_in_empire = no
				}
			}
			set_government_rank = 2
			add_prestige = 50
			if = {
				limit = { has_custom_ideas = no }
				country_event = { id = ideagroups.1 } #Swap Ideas
			}
			add_country_modifier = {
				name = "centralization_modifier"
				duration = 7300
			}
			set_country_flag = formed_ghankedhen_flag
		}
		ai_will_do = {
			factor = 1
		}
	}
	
	form_dhujat = { #Kingdom of the Kharuyana river
		major = yes
		potential = {
			OR = {
				primary_culture = muthadhaya
				primary_culture = rasarhid
				AND = {
					primary_culture = royal_harimari
					capital_scope = {
						OR = {
							region = dhujat_region
						}
					}
				}
			}
			NOT = { exists = R75 }
			normal_or_historical_nations = yes
			was_never_end_game_tag_trigger = yes
			NOT = { has_country_flag = formed_dhujat_flag }
		}
		provinces_to_highlight = {
			OR = {
				province_id = 4409
				province_id = 4492
				province_id = 4493
				province_id = 4497
				province_id = 4499
				province_id = 4501
				province_id = 4504
			}
			OR = {
				NOT = { owned_by = ROOT }
				NOT = { is_core = ROOT }
			}
		}
		allow = {
			adm_tech = 10
			is_at_war = no
			owns_core_province = 4409
			owns_core_province = 4492
			owns_core_province = 4493
			owns_core_province = 4497
			owns_core_province = 4499
			owns_core_province = 4501
			owns_core_province = 4504
		}
		effect = {
			change_tag = R75
			hidden_effect = { restore_country_name = yes }
			hidden_effect = {
				every_owned_province = {
					limit = {
						is_part_of_hre = yes
					}
					set_in_empire = no
				}
			}
			set_government_rank = 2
			add_prestige = 50
			if = {
				limit = { has_custom_ideas = no }
				country_event = { id = ideagroups.1 } #Swap Ideas
			}
			add_country_modifier = {
				name = "centralization_modifier"
				duration = 7300
			}
			set_country_flag = formed_dhujat_flag
		}
		ai_will_do = {
			factor = 1
		}
	}
	
	form_sardhasi = { #Union of the cities of Southern Rahen
		major = yes
		potential = {
			OR = {
				culture_group = south_raheni
				AND = {
					primary_culture = royal_harimari
					capital_scope = {
						OR = {
							region = rahen_coast_region
							area = south_marutha_area
							area = south_ghankedhen_area
							area = north_ghankedhen_area
							area = kramitra_area
						}
					}
				}
			}
			NOT = { tag = R51 tag = R77 tag = R38 }
			NOT = { exists = R76 }
			normal_or_historical_nations = yes
			was_never_end_game_tag_trigger = yes
			NOT = { has_country_flag = formed_sardhasi_flag }
		}
		provinces_to_highlight = {
			OR = {
				province_id = 4435
				province_id = 4427
				province_id = 4426
				province_id = 4412
				province_id = 4411
				province_id = 4410
				province_id = 4391
				province_id = 4392
				province_id = 4418
				province_id = 4419
				province_id = 4417
				province_id = 4423
				province_id = 4405
				province_id = 4368
			}
			NOT = {
				calc_true_if = {
					amount = 9
					all_province = {
						OR = {
							province_id = 4435
							province_id = 4427
							province_id = 4426
							province_id = 4412
							province_id = 4411
							province_id = 4410
							province_id = 4391
							province_id = 4392
							province_id = 4418
							province_id = 4419
							province_id = 4417
							province_id = 4423
							province_id = 4405
							province_id = 4368
						}
						owned_by = ROOT
					}
				}
			}
			NOT = { owned_by = ROOT }
		}
		allow = {
			adm_tech = 10
			is_at_war = no			
			num_of_owned_provinces_with = {
				value = 9
				OR = {
					province_id = 4435
					province_id = 4427
					province_id = 4426
					province_id = 4412
					province_id = 4411
					province_id = 4410
					province_id = 4391
					province_id = 4392
					province_id = 4418
					province_id = 4419
					province_id = 4417
					province_id = 4423
					province_id = 4405
					province_id = 4368
				}
			}
		}
		effect = {
			change_tag = R76
			hidden_effect = { restore_country_name = yes }
			hidden_effect = {
				every_owned_province = {
					limit = {
						is_part_of_hre = yes
					}
					set_in_empire = no
				}
			}
			set_government_rank = 2
			add_prestige = 50
			if = {
				limit = { has_custom_ideas = no }
				country_event = { id = ideagroups.1 } #Swap Ideas
			}
			add_country_modifier = {
				name = "centralization_modifier"
				duration = 7300
			}
			set_country_flag = formed_sardhasi_flag
		}
		ai_will_do = {
			factor = 1
		}
	}
	
	form_vanrahar = { #Harimari Homeland
		major = yes
		potential = {
			primary_culture = royal_harimari
			NOT = { tag = R51 tag = R76 }
			NOT = { exists = R77 }
			normal_or_historical_nations = yes
			was_never_end_game_tag_trigger = yes
			NOT = { has_country_flag = formed_vanrahar_flag }
		}
		provinces_to_highlight = {
			OR = {
				AND = {
					OR = {
						province_id = 4378
						province_id = 4394
						province_id = 4390
						province_id = 4387
					}
					OR = {
						NOT = { owned_by = ROOT }
						NOT = { is_core = ROOT }
					}
				}
				AND = {
					OR = {
						area = harimars_cradle_area
						area = bharagha_area
					}
					NOT = { owned_by = ROOT }
				}
			}
		}
		allow = {
			is_at_war = no
			army_tradition = 40
			owns_core_province = 4378
			owns_core_province = 4394
			owns_core_province = 4390
			owns_core_province = 4387
			harimars_cradle_area = {
				owned_by = ROOT
			}
			bharagha_area = {
				owned_by = ROOT
			}
		}
		effect = {
			change_tag = R77
			hidden_effect = { restore_country_name = yes }
			swap_non_generic_missions = yes
			capital_scope = { add_base_manpower = 3 }
			hidden_effect = {
				every_owned_province = {
					limit = {
						is_part_of_hre = yes
					}
					set_in_empire = no
				}
			}
			set_government_rank = 2
			add_prestige = 50
			if = {
				limit = { has_custom_ideas = no }
				country_event = { id = ideagroups.1 } #Swap Ideas
			}
			add_country_modifier = {
				name = "centralization_modifier"
				duration = 7300
			}
			set_country_flag = formed_vanrahar_flag
			lock_racial_admin = yes
		}
		ai_will_do = {
			factor = 1
		}
	}
	
}
